[npc]
NULL
down
0
4
3
NULL
0
-1
0,1,2
false
false
false
[/npc]
[npc]
NULL
down
0
17
3
NULL
0
-1
3,4,5
false
false
false
[/npc]
[npc]
NULL
down
0
20
3
NULL
0
-1
3,4,5
false
false
false
[/npc]
[npc]
Coins Seller
down
319
4
2
NULL
0
-1
6
false
false
false
[/npc]
[npc]
Prize Exchange
down
328
17
2
NULL
0
-1
6
false
false
false
[/npc]
[npc]
Prize Exchange
down
328
20
2
NULL
0
-1
6
false
false
false
[/npc]
[npc]
Gambler
down
274
4
11
NULL
0
-1
7,8
false
false
false
[/npc]
[npc]
Gambler
right
369
7
14
NULL
0
-1
9,10
false
false
false
[/npc]
[npc]
Gambler
down
375
12
3
NULL
0
-1
11
false
false
false
[/npc]
[npc]
Gambler
right
145
13
14
NULL
0
-1
12,13
false
false
false
[/npc]
[npc]
Gambler
left
278
16
12
NULL
0
-1
14
false
false
false
[/npc]
[npc]
Gambler
right
360
19
10
NULL
0
-1
15,16,17
false
false
false
[/npc]
[npc]
Gambler
right
274
19
14
NULL
0
-1
18
false
false
false
[/npc]
[warp]
4
17
15
23
-5
0
0
[/warp]
