[warp]
40
26
8
18
16
0
0
[/warp]
[warp]
40
27
8
19
16
0
0
[/warp]
[warp]
30
5
10
34
16
2
0
[/warp]
[warp]
31
5
11
34
16
2
0
[/warp]
[warp]
37
5
20
34
16
2
0
[/warp]
[warp]
38
5
21
34
16
2
0
[/warp]