[npc]
NULL
down
0
8
13
NULL
0
-1
0,3,2
false
false
false
[/npc]
[npc]
NULL
down
0
8
10
NULL
0
-1
0,3,2
false
false
false
[/npc]
[npc]
NULL
down
0
8
7
NULL
0
-1
0,3,2
false
false
false
[/npc]
[npc]
NULL
down
0
14
13
NULL
0
-1
0,1,2
false
false
false
[/npc]
[npc]
NULL
down
0
14
10
NULL
0
-1
0,1,2
false
false
false
[/npc]
[npc]
NULL
down
0
14
7
NULL
0
-1
0,1,2
false
false
false
[/npc]
[warp]
11
6
12
16
-45
-23
0
[/warp]