[warp]
15
32
27
24
41
40
0
[/warp]
[warp]
36
24
46
16
41
40
0
[/warp]
[warp]
39
32
39
33
41
42
0
[/warp]
[warp]
40
24
40
25
41
42
0
[/warp]
[warp]
19
16
19
17
41
42
0
[/warp]
[warp]
23
14
24
14
41
42
0
[/warp]
[warp]
40
13
40
14
41
42
0
[/warp]